{
	"port" : 5000,
	"api" : {
		"host" : "api.sandbox.paypal.com",
		"port" : "",
		"client_id" : "AWRxHRAfL9SeCPqs_9MfKYDYWM5WTSVhgiWrHA97jcpTcZp9u-_JmSHcpVVK",
		"client_secret" : "EJ7_dRC6eCrv7s4fuXCWoHmAzqask2t29MLBIrCaWptN13No_6G5X4AplwTm"
	}
}